# File produced by Open Asset Import Library (http://www.assimp.sf.net)
# (assimp v5.0.2399955716)

newmtl $Material_0
Kd 0 0 0
Ka 1 1 1
illum 1

newmtl $Material_1
Kd 0.014925373 0.014925373 0.014925373
Ka 1 1 1
illum 1

newmtl $Material_2
Kd 0.029850746 0.029850746 0.029850746
Ka 1 1 1
illum 1

newmtl $Material_3
Kd 0.044776119 0.044776119 0.044776119
Ka 1 1 1
illum 1

newmtl $Material_4
Kd 0.059701491 0.059701491 0.059701491
Ka 1 1 1
illum 1

newmtl $Material_5
Kd 0.074626863 0.074626863 0.074626863
Ka 1 1 1
illum 1

newmtl $Material_6
Kd 0.089552239 0.089552239 0.089552239
Ka 1 1 1
illum 1

newmtl $Material_7
Kd 0.10447761 0.10447761 0.10447761
Ka 1 1 1
illum 1

newmtl $Material_8
Kd 0.11940298 0.11940298 0.11940298
Ka 1 1 1
illum 1

newmtl $Material_9
Kd 0.13432837 0.13432837 0.13432837
Ka 1 1 1
illum 1

newmtl $Material_10
Kd 0.14925373 0.14925373 0.14925373
Ka 1 1 1
illum 1

newmtl $Material_11
Kd 0.1641791 0.1641791 0.1641791
Ka 1 1 1
illum 1

newmtl $Material_12
Kd 0.17910448 0.17910448 0.17910448
Ka 1 1 1
illum 1

newmtl $Material_13
Kd 0.19402985 0.19402985 0.19402985
Ka 1 1 1
illum 1

newmtl $Material_14
Kd 0.20895523 0.20895523 0.20895523
Ka 1 1 1
illum 1

newmtl $Material_15
Kd 0.2238806 0.2238806 0.2238806
Ka 1 1 1
illum 1

newmtl $Material_16
Kd 0.23880596 0.23880596 0.23880596
Ka 1 1 1
illum 1

newmtl $Material_17
Kd 0.25373134 0.25373134 0.25373134
Ka 1 1 1
illum 1

newmtl $Material_18
Kd 0.26865673 0.26865673 0.26865673
Ka 1 1 1
illum 1

newmtl $Material_19
Kd 0.28358209 0.28358209 0.28358209
Ka 1 1 1
illum 1

newmtl $Material_20
Kd 0.29850745 0.29850745 0.29850745
Ka 1 1 1
illum 1

newmtl $Material_21
Kd 0.31343284 0.31343284 0.31343284
Ka 1 1 1
illum 1

newmtl $Material_22
Kd 0.3283582 0.3283582 0.3283582
Ka 1 1 1
illum 1

newmtl $Material_23
Kd 0.34328359 0.34328359 0.34328359
Ka 1 1 1
illum 1

newmtl $Material_24
Kd 0.35820895 0.35820895 0.35820895
Ka 1 1 1
illum 1

newmtl $Material_25
Kd 0.37313432 0.37313432 0.37313432
Ka 1 1 1
illum 1

newmtl $Material_26
Kd 0.38805971 0.38805971 0.38805971
Ka 1 1 1
illum 1

newmtl $Material_27
Kd 0.40298507 0.40298507 0.40298507
Ka 1 1 1
illum 1

newmtl $Material_28
Kd 0.41791046 0.41791046 0.41791046
Ka 1 1 1
illum 1

newmtl $Material_29
Kd 0.43283582 0.43283582 0.43283582
Ka 1 1 1
illum 1

newmtl $Material_30
Kd 0.44776121 0.44776121 0.44776121
Ka 1 1 1
illum 1

newmtl $Material_31
Kd 0.46268657 0.46268657 0.46268657
Ka 1 1 1
illum 1

newmtl $Material_32
Kd 0.47761193 0.47761193 0.47761193
Ka 1 1 1
illum 1

newmtl $Material_33
Kd 0.49253732 0.49253732 0.49253732
Ka 1 1 1
illum 1

newmtl $Material_34
Kd 0.50746268 0.50746268 0.50746268
Ka 1 1 1
illum 1

newmtl $Material_35
Kd 0.52238804 0.52238804 0.52238804
Ka 1 1 1
illum 1

newmtl $Material_36
Kd 0.53731346 0.53731346 0.53731346
Ka 1 1 1
illum 1

newmtl $Material_37
Kd 0.55223882 0.55223882 0.55223882
Ka 1 1 1
illum 1

newmtl $Material_38
Kd 0.56716418 0.56716418 0.56716418
Ka 1 1 1
illum 1

newmtl $Material_39
Kd 0.58208954 0.58208954 0.58208954
Ka 1 1 1
illum 1

newmtl $Material_40
Kd 0.5970149 0.5970149 0.5970149
Ka 1 1 1
illum 1

newmtl $Material_41
Kd 0.61194032 0.61194032 0.61194032
Ka 1 1 1
illum 1

newmtl $Material_42
Kd 0.62686568 0.62686568 0.62686568
Ka 1 1 1
illum 1

newmtl $Material_43
Kd 0.64179105 0.64179105 0.64179105
Ka 1 1 1
illum 1

newmtl $Material_44
Kd 0.65671641 0.65671641 0.65671641
Ka 1 1 1
illum 1

newmtl $Material_45
Kd 0.67164177 0.67164177 0.67164177
Ka 1 1 1
illum 1

newmtl $Material_46
Kd 0.68656719 0.68656719 0.68656719
Ka 1 1 1
illum 1

newmtl $Material_47
Kd 0.70149255 0.70149255 0.70149255
Ka 1 1 1
illum 1

newmtl $Material_48
Kd 0.71641791 0.71641791 0.71641791
Ka 1 1 1
illum 1

newmtl $Material_49
Kd 0.73134327 0.73134327 0.73134327
Ka 1 1 1
illum 1

newmtl $Material_50
Kd 0.74626863 0.74626863 0.74626863
Ka 1 1 1
illum 1

newmtl $Material_51
Kd 0.76119405 0.76119405 0.76119405
Ka 1 1 1
illum 1

newmtl $Material_52
Kd 0.77611941 0.77611941 0.77611941
Ka 1 1 1
illum 1

newmtl $Material_53
Kd 0.79104477 0.79104477 0.79104477
Ka 1 1 1
illum 1

newmtl $Material_54
Kd 0.80597013 0.80597013 0.80597013
Ka 1 1 1
illum 1

newmtl $Material_55
Kd 0.82089549 0.82089549 0.82089549
Ka 1 1 1
illum 1

newmtl $Material_56
Kd 0.83582091 0.83582091 0.83582091
Ka 1 1 1
illum 1

newmtl $Material_57
Kd 0.85074627 0.85074627 0.85074627
Ka 1 1 1
illum 1

newmtl $Material_58
Kd 0.86567163 0.86567163 0.86567163
Ka 1 1 1
illum 1

newmtl $Material_59
Kd 0.880597 0.880597 0.880597
Ka 1 1 1
illum 1

newmtl $Material_60
Kd 0.89552242 0.89552242 0.89552242
Ka 1 1 1
illum 1

newmtl $Material_61
Kd 0.91044778 0.91044778 0.91044778
Ka 1 1 1
illum 1

newmtl $Material_62
Kd 0.92537314 0.92537314 0.92537314
Ka 1 1 1
illum 1

newmtl $Material_63
Kd 0.9402985 0.9402985 0.9402985
Ka 1 1 1
illum 1

newmtl $Material_64
Kd 0.95522386 0.95522386 0.95522386
Ka 1 1 1
illum 1

newmtl $Material_65
Kd 0.97014928 0.97014928 0.97014928
Ka 1 1 1
illum 1

newmtl $Material_66
Kd 0.98507464 0.98507464 0.98507464
Ka 1 1 1
illum 1

