# File produced by Open Asset Import Library (http://www.assimp.sf.net)
# (assimp v5.0.2399955716)

newmtl $Material_0
Kd 0 0 0
Ka 1 1 1
illum 1

newmtl $Material_1
Kd 0.023809524 0.023809524 0.023809524
Ka 1 1 1
illum 1

newmtl $Material_2
Kd 0.047619049 0.047619049 0.047619049
Ka 1 1 1
illum 1

newmtl $Material_3
Kd 0.071428575 0.071428575 0.071428575
Ka 1 1 1
illum 1

newmtl $Material_4
Kd 0.095238097 0.095238097 0.095238097
Ka 1 1 1
illum 1

newmtl $Material_5
Kd 0.11904762 0.11904762 0.11904762
Ka 1 1 1
illum 1

newmtl $Material_6
Kd 0.14285715 0.14285715 0.14285715
Ka 1 1 1
illum 1

newmtl $Material_7
Kd 0.16666667 0.16666667 0.16666667
Ka 1 1 1
illum 1

newmtl $Material_8
Kd 0.19047619 0.19047619 0.19047619
Ka 1 1 1
illum 1

newmtl $Material_9
Kd 0.21428572 0.21428572 0.21428572
Ka 1 1 1
illum 1

newmtl $Material_10
Kd 0.23809524 0.23809524 0.23809524
Ka 1 1 1
illum 1

newmtl $Material_11
Kd 0.26190478 0.26190478 0.26190478
Ka 1 1 1
illum 1

newmtl $Material_12
Kd 0.2857143 0.2857143 0.2857143
Ka 1 1 1
illum 1

newmtl $Material_13
Kd 0.30952382 0.30952382 0.30952382
Ka 1 1 1
illum 1

newmtl $Material_14
Kd 0.33333334 0.33333334 0.33333334
Ka 1 1 1
illum 1

newmtl $Material_15
Kd 0.35714287 0.35714287 0.35714287
Ka 1 1 1
illum 1

newmtl $Material_16
Kd 0.38095239 0.38095239 0.38095239
Ka 1 1 1
illum 1

newmtl $Material_17
Kd 0.40476191 0.40476191 0.40476191
Ka 1 1 1
illum 1

newmtl $Material_18
Kd 0.42857143 0.42857143 0.42857143
Ka 1 1 1
illum 1

newmtl $Material_19
Kd 0.45238096 0.45238096 0.45238096
Ka 1 1 1
illum 1

newmtl $Material_20
Kd 0.47619048 0.47619048 0.47619048
Ka 1 1 1
illum 1

newmtl $Material_21
Kd 0.5 0.5 0.5
Ka 1 1 1
illum 1

newmtl $Material_22
Kd 0.52380955 0.52380955 0.52380955
Ka 1 1 1
illum 1

newmtl $Material_23
Kd 0.54761904 0.54761904 0.54761904
Ka 1 1 1
illum 1

newmtl $Material_24
Kd 0.5714286 0.5714286 0.5714286
Ka 1 1 1
illum 1

newmtl $Material_25
Kd 0.59523809 0.59523809 0.59523809
Ka 1 1 1
illum 1

newmtl $Material_26
Kd 0.61904764 0.61904764 0.61904764
Ka 1 1 1
illum 1

newmtl $Material_27
Kd 0.64285713 0.64285713 0.64285713
Ka 1 1 1
illum 1

newmtl $Material_28
Kd 0.66666669 0.66666669 0.66666669
Ka 1 1 1
illum 1

newmtl $Material_29
Kd 0.69047618 0.69047618 0.69047618
Ka 1 1 1
illum 1

newmtl $Material_30
Kd 0.71428573 0.71428573 0.71428573
Ka 1 1 1
illum 1

newmtl $Material_31
Kd 0.73809522 0.73809522 0.73809522
Ka 1 1 1
illum 1

newmtl $Material_32
Kd 0.76190478 0.76190478 0.76190478
Ka 1 1 1
illum 1

newmtl $Material_33
Kd 0.78571427 0.78571427 0.78571427
Ka 1 1 1
illum 1

newmtl $Material_34
Kd 0.80952382 0.80952382 0.80952382
Ka 1 1 1
illum 1

newmtl $Material_35
Kd 0.83333331 0.83333331 0.83333331
Ka 1 1 1
illum 1

newmtl $Material_36
Kd 0.85714287 0.85714287 0.85714287
Ka 1 1 1
illum 1

newmtl $Material_37
Kd 0.88095236 0.88095236 0.88095236
Ka 1 1 1
illum 1

newmtl $Material_38
Kd 0.90476191 0.90476191 0.90476191
Ka 1 1 1
illum 1

newmtl $Material_39
Kd 0.9285714 0.9285714 0.9285714
Ka 1 1 1
illum 1

newmtl $Material_40
Kd 0.95238096 0.95238096 0.95238096
Ka 1 1 1
illum 1

newmtl $Material_41
Kd 0.97619045 0.97619045 0.97619045
Ka 1 1 1
illum 1

